…
We have two basic options for classifying multi-label data: we can either use a classifier like a neural network, which can naturally classify records into more than one category, or we can turn the multi-label classification problem into a discrete classification problem. For instance, we could create a new factor variable with one category for each possible combination of labels:

label_cat <- train %>% 
    select(id, toxic:identity_hate) %>% 
    gather(label, value, -id) %>%
    filter(value == 1) %>% 
    group_by(id) %>% 
    summarize(label_cat = paste(label, collapse = "|")) 

label_cat %>% 
    group_by(label_cat) %>% 
    tally() %>% 
    arrange(n)

## # A tibble: 40 x 2
##    label_cat                                    n
##    <chr>                                    <int>
##  1 toxic|severe_toxic|threat|identity_hate      1
##  2 toxic|severe_toxic|threat|insult             1
##  3 obscene|threat                               2
##  4 obscene|threat|insult                        2
##  5 obscene|identity_hate                        3
##  6 threat|insult                                3
##  7 toxic|severe_toxic|identity_hate             3
##  8 toxic|threat|insult|identity_hate            3
##  9 toxic|severe_toxic|obscene|threat            4
## 10 toxic|severe_toxic|obscene|identity_hate     6
## # ... with 30 more rows
…
